{
  "best-sellers": [
    {
      "title": "Notebook 2 em 1 Acer - Windows 10",
      "price": 999.00,
      "installments": {
        "number": 10,
        "value": 99.00
      },
      "free-shipping": true,
      "image": "http://bit.ly/2t2dUEI"
    },
    {
      "title": "Harry Potter Coleção Completa (7 Livros)",
      "price": 129.90,
      "installments": {
        "number": 2,
        "value": 64.95
      },
      "free-shipping": false,
      "image": "http://bit.ly/2rUbuIM"
    },
    {
      "title": "Smartphone Samsung Galaxy J5 - Dourado",
      "price": 699.90,
      "installments": {
        "number": 7,
        "value": 99.85
      },
      "free-shipping": true,
      "image": "http://bit.ly/2t2jPcX"
    },
    {
      "title": "Smart TV LED 32 Samsung",
      "price": 999.90,
      "installments": {
        "number": 10,
        "value": 99.90
      },
      "free-shipping": true,
      "image": "http://bit.ly/2r2XU4R"
    },
    {
      "title": "Smartphone Moto G 5 Dual Chip Android 7.0 32GB 4G Câmera 13MP - Platinum",
      "price": 979.00,
      "installments": {
        "number": 9,
        "value": 108.77
      },
      "free-shipping": true,
      "image": "http://bit.ly/2rIDKQs"
    },
    {
      "title": "Game Overwatch: Edição Origins - PS4",
      "price": 169.90,
      "installments": {
        "number": 4,
        "value": 42.49
      },
      "free-shipping": false,
      "image": "http://bit.ly/2rdfUZm"
    },
    {
      "title": "Tom Clancys Ghost Recon Wildlands Limited Edition - PS4",
      "price": 144.50,
      "installments": {
        "number": 4,
        "value": 36.12
      },
      "free-shipping": true,
      "image": "http://bit.ly/2rIH11W"
    },
    {
      "title": "Mochila Ultralight Laptop - Targus",
      "price": 80.00,
      "installments": {
        "number": 2,
        "value": 40.00
      },
      "free-shipping": false,
      "image": "http://bit.ly/2slSfdX"
    }
  ],
  "releases": [
    {
      "title": "Notebook Dell Inspiron Gaming Edition - Windows 10",
      "price": 999.00,
      "installments": {
        "number": 10,
        "value": 99.90
      },
      "free-shipping": true,
      "image": "http://bit.ly/2r2AaxP"
    },
    {
      "title": "iPhone 7 Plus 128GB Preto",
      "price": 999.90,
      "installments": {
        "number": 10,
        "value": 99.99
      },
      "free-shipping": true,
      "image": "http://bit.ly/2r2v7xr"
    },
    {
      "title": "Console Playstation 4 Slim - 500GB - Preto",
      "price": 999.90,
      "installments": {
        "number": 5,
        "value": 199.98
      },
      "free-shipping": false,
      "image": "http://bit.ly/2r9PVXF"
    },
    {
      "title": "Game Horizon Zero Dawn - PS4",
      "price": 190.47,
      "installments": {
        "number": 9,
        "value": 21.16
      },
      "free-shipping": false,
      "image": "http://bit.ly/2rdW2Wc"
    },
    {
      "title": "Fone de Ouvido Sony P2 Preto MDR-XB450AP/BCE7",
      "price": 175.00,
      "installments": {
        "number": 5,
        "value": 35.00
      },
      "free-shipping": false,
      "image": "http://bit.ly/2rJ7HzN"
    },
    {
      "title": "Cafeteira Expresso Nespresso Inissia - Vermelho Ruby",
      "price": 299.00,
      "installments": {
        "number": 6,
        "value": 49.83
      },
      "free-shipping": true,
      "image": "http://bit.ly/2rderT4"
    },
    {
      "title": "Câmera Digital Gopro Hero 5 Black à prova d'água 12.1MP com Wi-Fi e Gravação 4K - Cinza/Preta",
      "price": 999.90,
      "installments": {
        "number": 10,
        "value": 99.90
      },
      "free-shipping": true,
      "image": "http://bit.ly/2sKTPDD"
    },
    {
      "title": "Smartwatch Bluetooth Compativel Com Android",
      "price": 98.00,
      "installments": {
        "number": 10,
        "value": 9.80
      },
      "free-shipping": false,
      "image": "http://bit.ly/2t2pAXX"
    }
  ]
}